{
  "numTotalTestSuites": 10,
  "numPassedTestSuites": 10,
  "numFailedTestSuites": 0,
  "numPendingTestSuites": 0,
  "numTotalTests": 7,
  "numPassedTests": 7,
  "numFailedTests": 0,
  "numPendingTests": 0,
  "numTodoTests": 0,
  "startTime": 1652007506876,
  "success": true,
  "testResults": [
    {
      "perfStats": {
        "runtime": 61.77309989929199,
        "start": 1652007513784,
        "end": 1652007513845.7732
      },
      "displayName": "should toggle the class on click",
      "skipped": false,
      "status": "pass",
      "testFilePath": "D:/Workspace/ponyracer/src/components/__tests__/Navbar.spec.ts"
    },
    {
      "perfStats": {
        "runtime": 9.088500022888184,
        "start": 1652007513856,
        "end": 1652007513865.0884
      },
      "displayName": "should transform a date",
      "skipped": false,
      "status": "pass",
      "testFilePath": "D:/Workspace/ponyracer/src/utils/__tests__/FromNow.spec.ts"
    },
    {
      "perfStats": {
        "runtime": 98.96810054779053,
        "start": 1652007514238,
        "end": 1652007514336.968
      },
      "displayName": "should display a race name and its ponies",
      "skipped": false,
      "status": "pass",
      "testFilePath": "D:/Workspace/ponyracer/src/components/__tests__/Race.spec.ts"
    },
    {
      "perfStats": {
        "runtime": 82.44180011749268,
        "start": 1652007514281,
        "end": 1652007514363.442
      },
      "displayName": "should display every race name in a title",
      "skipped": false,
      "status": "pass",
      "testFilePath": "D:/Workspace/ponyracer/src/views/__tests__/Races.spec.ts"
    },
    {
      "perfStats": {
        "runtime": 124.03369998931885,
        "start": 1652007517271,
        "end": 1652007517395.0337
      },
      "displayName": "renders a title",
      "skipped": false,
      "status": "pass",
      "testFilePath": "D:/Workspace/ponyracer/src/__tests__/App.spec.ts"
    },
    {
      "perfStats": {
        "runtime": 11.945599555969238,
        "start": 1652007517395,
        "end": 1652007517406.9456
      },
      "displayName": "renders the navbar",
      "skipped": false,
      "status": "pass",
      "testFilePath": "D:/Workspace/ponyracer/src/__tests__/App.spec.ts"
    },
    {
      "perfStats": {
        "runtime": 13.278900146484375,
        "start": 1652007517407,
        "end": 1652007517420.2788
      },
      "displayName": "renders the races list",
      "skipped": false,
      "status": "pass",
      "testFilePath": "D:/Workspace/ponyracer/src/__tests__/App.spec.ts"
    }
  ]
}